C-Path R Training
…
```r
x <- 1:6
ifelse(test = x < 3, yes = "small", no = "large")
## [1] "small" "small" "large" "large" "large" "large"
```

```r
nhanes %>% 
  mutate(pulse_type = ifelse(Pulse > 70, "fast", "slow")) %>% 
  select(Pulse, pulse_type)
## # A tibble: 20,293 x 2
##    Pulse pulse_type
##    <int> <chr>     
##  1    70 slow      
##  2    NA <NA>      
##  3    68 slow      
##  4    68 slow      
##  5    72 fast      
##  6    72 fast      
##  7    86 fast      
##  8    NA <NA>      
##  9    70 slow      
## 10    88 fast      
## # ... with 20,283 more rows
```
…
count: false
 
### Case Study Output
.panel1-case-study-auto[

```r
*bike_trips
```
]
 
.panel2-case-study-auto[

```
## # A tibble: 552,399 x 9
##    `Duration (ms)` `Start date`  `End date`  `Start station n~ `Start station`  
##              <dbl> <chr>         <chr>                   <dbl> <chr>            
##  1          301295 3/31/2016 23~ 4/1/2016 0~             31280 11th & S St NW   
##  2          557887 3/31/2016 23~ 4/1/2016 0~             31275 New Hampshire Av~
##  3          555944 3/31/2016 23~ 4/1/2016 0~             31101 14th & V St NW   
##  4          766916 3/31/2016 23~ 4/1/2016 0~             31226 34th St & Wiscon~
##  5          139656 3/31/2016 23~ 3/31/2016 ~             31011 23rd & Crystal Dr
##  6          967713 3/31/2016 23~ 4/1/2016 0~             31266 11th & M St NW   
##  7          534836 3/31/2016 23~ 4/1/2016 0~             31222 New York Ave & 1~
##  8          243864 3/31/2016 23~ 4/1/2016 0~             31228 8th & H St NW    
##  9          372524 3/31/2016 23~ 4/1/2016 0~             31113 Columbia Rd & Be~
## 10          215194 3/31/2016 23~ 3/31/2016 ~             31263 10th & K St NW   
## # ... with 552,389 more rows, and 4 more variables: End station number <dbl>,
## #   End station <chr>, Bike number <chr>, Member Type <chr>
```
…
### Case Study Output
.panel1-case-study-auto[

```r
bike_trips %>%
* janitor::clean_names()
```
]
 
.panel2-case-study-auto[

```
## # A tibble: 552,399 x 9
##    duration_ms start_date    end_date     start_station_nu~ start_station       
##          <dbl> <chr>         <chr>                    <dbl> <chr>               
##  1      301295 3/31/2016 23~ 4/1/2016 0:~             31280 11th & S St NW      
##  2      557887 3/31/2016 23~ 4/1/2016 0:~             31275 New Hampshire Ave &~
##  3      555944 3/31/2016 23~ 4/1/2016 0:~             31101 14th & V St NW      
##  4      766916 3/31/2016 23~ 4/1/2016 0:~             31226 34th St & Wisconsin~
##  5      139656 3/31/2016 23~ 3/31/2016 2~             31011 23rd & Crystal Dr   
##  6      967713 3/31/2016 23~ 4/1/2016 0:~             31266 11th & M St NW      
##  7      534836 3/31/2016 23~ 4/1/2016 0:~             31222 New York Ave & 15th~
##  8      243864 3/31/2016 23~ 4/1/2016 0:~             31228 8th & H St NW       
##  9      372524 3/31/2016 23~ 4/1/2016 0:~             31113 Columbia Rd & Belmo~
## 10      215194 3/31/2016 23~ 3/31/2016 2~             31263 10th & K St NW      
## # ... with 552,389 more rows, and 4 more variables: end_station_number <dbl>,
## #   end_station <chr>, bike_number <chr>, member_type <chr>
```
…
### Case Study Output
.panel1-case-study-auto[

```r
bike_trips %>%
  janitor::clean_names() %>%
* select(start_date, end_date)
```
]
 
.panel2-case-study-auto[

```
## # A tibble: 552,399 x 2
##    start_date      end_date       
##    <chr>           <chr>          
##  1 3/31/2016 23:59 4/1/2016 0:04  
##  2 3/31/2016 23:59 4/1/2016 0:08  
##  3 3/31/2016 23:59 4/1/2016 0:08  
##  4 3/31/2016 23:57 4/1/2016 0:09  
##  5 3/31/2016 23:57 3/31/2016 23:59
##  6 3/31/2016 23:57 4/1/2016 0:13  
##  7 3/31/2016 23:57 4/1/2016 0:06  
##  8 3/31/2016 23:56 4/1/2016 0:00  
##  9 3/31/2016 23:55 4/1/2016 0:01  
## 10 3/31/2016 23:55 3/31/2016 23:59
## # ... with 552,389 more rows
```
…
### Case Study Output
.panel1-case-study-auto[

```r
bike_trips %>%
  janitor::clean_names() %>%
  select(start_date, end_date) %>%
* mutate(start_date = mdy_hm(start_date))
```
]
 
.panel2-case-study-auto[

```
## # A tibble: 552,399 x 2
##    start_date          end_date       
##    <dttm>              <chr>          
##  1 2016-03-31 23:59:00 4/1/2016 0:04  
##  2 2016-03-31 23:59:00 4/1/2016 0:08  
##  3 2016-03-31 23:59:00 4/1/2016 0:08  
##  4 2016-03-31 23:57:00 4/1/2016 0:09  
##  5 2016-03-31 23:57:00 3/31/2016 23:59
##  6 2016-03-31 23:57:00 4/1/2016 0:13  
##  7 2016-03-31 23:57:00 4/1/2016 0:06  
##  8 2016-03-31 23:56:00 4/1/2016 0:00  
##  9 2016-03-31 23:55:00 4/1/2016 0:01  
## 10 2016-03-31 23:55:00 3/31/2016 23:59
## # ... with 552,389 more rows
```
…
```r
bike_trips %>%
  janitor::clean_names() %>%
  select(start_date, end_date) %>%
  mutate(start_date = mdy_hm(start_date)) %>%
* mutate(end_date = mdy_hm(end_date))
```
]
 
.panel2-case-study-auto[

```
## # A tibble: 552,399 x 2
##    start_date          end_date           
##    <dttm>              <dttm>             
##  1 2016-03-31 23:59:00 2016-04-01 00:04:00
##  2 2016-03-31 23:59:00 2016-04-01 00:08:00
##  3 2016-03-31 23:59:00 2016-04-01 00:08:00
##  4 2016-03-31 23:57:00 2016-04-01 00:09:00
##  5 2016-03-31 23:57:00 2016-03-31 23:59:00
##  6 2016-03-31 23:57:00 2016-04-01 00:13:00
##  7 2016-03-31 23:57:00 2016-04-01 00:06:00
##  8 2016-03-31 23:56:00 2016-04-01 00:00:00
##  9 2016-03-31 23:55:00 2016-04-01 00:01:00
## 10 2016-03-31 23:55:00 2016-03-31 23:59:00
## # ... with 552,389 more rows
```
…
```r
bike_trips %>%
  janitor::clean_names() %>%
  select(start_date, end_date) %>%
  mutate(start_date = mdy_hm(start_date)) %>%
  mutate(end_date = mdy_hm(end_date)) %>%
* mutate(weekday = wday(start_date, label = TRUE))
```
]
 
.panel2-case-study-auto[

```
## # A tibble: 552,399 x 3
##    start_date          end_date            weekday
##    <dttm>              <dttm>              <ord>  
##  1 2016-03-31 23:59:00 2016-04-01 00:04:00 Thu    
##  2 2016-03-31 23:59:00 2016-04-01 00:08:00 Thu    
##  3 2016-03-31 23:59:00 2016-04-01 00:08:00 Thu    
##  4 2016-03-31 23:57:00 2016-04-01 00:09:00 Thu    
##  5 2016-03-31 23:57:00 2016-03-31 23:59:00 Thu    
##  6 2016-03-31 23:57:00 2016-04-01 00:13:00 Thu    
##  7 2016-03-31 23:57:00 2016-04-01 00:06:00 Thu    
##  8 2016-03-31 23:56:00 2016-04-01 00:00:00 Thu    
##  9 2016-03-31 23:55:00 2016-04-01 00:01:00 Thu    
## 10 2016-03-31 23:55:00 2016-03-31 23:59:00 Thu    
## # ... with 552,389 more rows
```
…
```r
bike_trips %>%
  janitor::clean_names() %>%
  select(start_date, end_date) %>%
  mutate(start_date = mdy_hm(start_date)) %>%
  mutate(end_date = mdy_hm(end_date)) %>%
  mutate(weekday = wday(start_date, label = TRUE)) %>%
* mutate(trip_duration = end_date-start_date)
```
]
 
.panel2-case-study-auto[

```
## # A tibble: 552,399 x 4
##    start_date          end_date            weekday trip_duration
##    <dttm>              <dttm>              <ord>   <drtn>       
##  1 2016-03-31 23:59:00 2016-04-01 00:04:00 Thu      5 mins      
##  2 2016-03-31 23:59:00 2016-04-01 00:08:00 Thu      9 mins      
##  3 2016-03-31 23:59:00 2016-04-01 00:08:00 Thu      9 mins      
##  4 2016-03-31 23:57:00 2016-04-01 00:09:00 Thu     12 mins      
##  5 2016-03-31 23:57:00 2016-03-31 23:59:00 Thu      2 mins      
##  6 2016-03-31 23:57:00 2016-04-01 00:13:00 Thu     16 mins      
##  7 2016-03-31 23:57:00 2016-04-01 00:06:00 Thu      9 mins      
##  8 2016-03-31 23:56:00 2016-04-01 00:00:00 Thu      4 mins      
##  9 2016-03-31 23:55:00 2016-04-01 00:01:00 Thu      6 mins      
## 10 2016-03-31 23:55:00 2016-03-31 23:59:00 Thu      4 mins      
## # ... with 552,389 more rows
```
…
.panel2-case-study-auto[

```
## # A tibble: 552,399 x 4
##    start_date          end_date            weekday trip_duration
##    <dttm>              <dttm>              <ord>   <drtn>       
##  1 2016-03-31 23:59:00 2016-04-01 00:04:00 Thu      5 mins      
##  2 2016-03-31 23:59:00 2016-04-01 00:08:00 Thu      9 mins      
##  3 2016-03-31 23:59:00 2016-04-01 00:08:00 Thu      9 mins      
##  4 2016-03-31 23:57:00 2016-04-01 00:09:00 Thu     12 mins      
##  5 2016-03-31 23:57:00 2016-03-31 23:59:00 Thu      2 mins      
##  6 2016-03-31 23:57:00 2016-04-01 00:13:00 Thu     16 mins      
##  7 2016-03-31 23:57:00 2016-04-01 00:06:00 Thu      9 mins      
##  8 2016-03-31 23:56:00 2016-04-01 00:00:00 Thu      4 mins      
##  9 2016-03-31 23:55:00 2016-04-01 00:01:00 Thu      6 mins      
## 10 2016-03-31 23:55:00 2016-03-31 23:59:00 Thu      4 mins      
## # ... with 552,389 more rows
```
…
