C-Path R Training
…
count: false

.panel1-pipe-example-user[

```r
*NHANES::NHANESraw
```
]
 
.panel2-pipe-example-user[

```
## # A tibble: 20,293 x 78
##       ID SurveyYr Gender   Age AgeMonths Race1   Race3 Education     MaritalStatus HHIncome  HHIncomeMid Poverty
##    <int> <fct>    <fct>  <int>     <int> <fct>   <fct> <fct>         <fct>         <fct>           <int>   <dbl>
##  1 51624 2009_10  male      34       409 White   <NA>  High School   Married       25000-34~       30000    1.36
##  2 51625 2009_10  male       4        49 Other   <NA>  <NA>          <NA>          20000-24~       22500    1.07
##  3 51626 2009_10  male      16       202 Black   <NA>  <NA>          <NA>          45000-54~       50000    2.27
##  4 51627 2009_10  male      10       131 Black   <NA>  <NA>          <NA>          20000-24~       22500    0.81
##  5 51628 2009_10  female    60       722 Black   <NA>  High School   Widowed       10000-14~       12500    0.69
##  6 51629 2009_10  male      26       313 Mexican <NA>  9 - 11th Gra~ Married       25000-34~       30000    1.01
##  7 51630 2009_10  female    49       596 White   <NA>  Some College  LivePartner   35000-44~       40000    1.91
##  8 51631 2009_10  female     1        12 White   <NA>  <NA>          <NA>          35000-44~       40000    1.36
##  9 51632 2009_10  male      10       124 Hispan~ <NA>  <NA>          <NA>          65000-74~       70000    2.68
## 10 51633 2009_10  male      80        NA White   <NA>  Some College  Married       15000-19~       17500    1.27
## # ... with 20,283 more rows, and 66 more variables: HomeRooms <int>, HomeOwn <fct>, Work <fct>, Weight <dbl>,
## #   Length <dbl>, HeadCirc <dbl>, Height <dbl>, BMI <dbl>, BMICatUnder20yrs <fct>, BMI_WHO <fct>, Pulse <int>,
## #   BPSysAve <int>, BPDiaAve <int>, BPSys1 <int>, BPDia1 <int>, BPSys2 <int>, BPDia2 <int>, BPSys3 <int>,
## #   BPDia3 <int>, Testosterone <dbl>, DirectChol <dbl>, TotChol <dbl>, UrineVol1 <int>, UrineFlow1 <dbl>,
## #   UrineVol2 <int>, UrineFlow2 <dbl>, Diabetes <fct>, DiabetesAge <int>, HealthGen <fct>,
## #   DaysPhysHlthBad <int>, DaysMentHlthBad <int>, LittleInterest <fct>, Depressed <fct>, nPregnancies <int>,
## #   nBabies <int>, Age1stBaby <int>, SleepHrsNight <int>, SleepTrouble <fct>, PhysActive <fct>,
## #   PhysActiveDays <int>, TVHrsDay <fct>, CompHrsDay <fct>, TVHrsDayChild <int>, CompHrsDayChild <int>,
## #   Alcohol12PlusYr <fct>, AlcoholDay <int>, AlcoholYear <int>, SmokeNow <fct>, Smoke100 <fct>, SmokeAge <int>,
…
---
count: false

.panel1-pipe-example-user[

```r
NHANES::NHANESraw %>%
*   filter(Weight > 65)
```
]
 
.panel2-pipe-example-user[

```
## # A tibble: 9,916 x 78
##       ID SurveyYr Gender   Age AgeMonths Race1   Race3 Education     MaritalStatus HHIncome  HHIncomeMid Poverty
##    <int> <fct>    <fct>  <int>     <int> <fct>   <fct> <fct>         <fct>         <fct>           <int>   <dbl>
##  1 51624 2009_10  male      34       409 White   <NA>  High School   Married       25000-34~       30000    1.36
##  2 51626 2009_10  male      16       202 Black   <NA>  <NA>          <NA>          45000-54~       50000    2.27
##  3 51628 2009_10  female    60       722 Black   <NA>  High School   Widowed       10000-14~       12500    0.69
##  4 51629 2009_10  male      26       313 Mexican <NA>  9 - 11th Gra~ Married       25000-34~       30000    1.01
##  5 51630 2009_10  female    49       596 White   <NA>  Some College  LivePartner   35000-44~       40000    1.91
##  6 51633 2009_10  male      80        NA White   <NA>  Some College  Married       15000-19~       17500    1.27
##  7 51635 2009_10  male      80        NA White   <NA>  9 - 11th Gra~ Widowed       15000-19~       17500    1.69
##  8 51640 2009_10  male      17       208 Hispan~ <NA>  <NA>          <NA>          10000-14~       12500    0.3 
##  9 51643 2009_10  female    42       514 Black   <NA>  9 - 11th Gra~ Married       35000-44~       40000    2.35
## 10 51645 2009_10  male      66       795 Mexican <NA>  9 - 11th Gra~ Married       5000-9999        7500    0.41
## # ... with 9,906 more rows, and 66 more variables: HomeRooms <int>, HomeOwn <fct>, Work <fct>, Weight <dbl>,
## #   Length <dbl>, HeadCirc <dbl>, Height <dbl>, BMI <dbl>, BMICatUnder20yrs <fct>, BMI_WHO <fct>, Pulse <int>,
## #   BPSysAve <int>, BPDiaAve <int>, BPSys1 <int>, BPDia1 <int>, BPSys2 <int>, BPDia2 <int>, BPSys3 <int>,
## #   BPDia3 <int>, Testosterone <dbl>, DirectChol <dbl>, TotChol <dbl>, UrineVol1 <int>, UrineFlow1 <dbl>,
## #   UrineVol2 <int>, UrineFlow2 <dbl>, Diabetes <fct>, DiabetesAge <int>, HealthGen <fct>,
## #   DaysPhysHlthBad <int>, DaysMentHlthBad <int>, LittleInterest <fct>, Depressed <fct>, nPregnancies <int>,
## #   nBabies <int>, Age1stBaby <int>, SleepHrsNight <int>, SleepTrouble <fct>, PhysActive <fct>,
## #   PhysActiveDays <int>, TVHrsDay <fct>, CompHrsDay <fct>, TVHrsDayChild <int>, CompHrsDayChild <int>,
## #   Alcohol12PlusYr <fct>, AlcoholDay <int>, AlcoholYear <int>, SmokeNow <fct>, Smoke100 <fct>, SmokeAge <int>,
…
.panel1-pipe-example-user[

```r
NHANES::NHANESraw %>%
    filter(Weight > 65) %>%
*   select(Weight,
*          Diabetes,
*          SmokeNow)
```
]
 
.panel2-pipe-example-user[

```
## # A tibble: 9,916 x 3
##    Weight Diabetes SmokeNow
##     <dbl> <fct>    <fct>   
##  1   87.4 No       No      
##  2   72.3 No       <NA>    
##  3  117.  Yes      Yes     
##  4   97.6 No       No      
##  5   86.7 No       Yes     
##  6   79.1 No       No      
##  7   89.6 Yes      No      
##  8   74.7 No       <NA>    
##  9  108.  Yes      <NA>    
## 10   82.9 No       <NA>    
## # ... with 9,906 more rows
```
…
---

count: false

.panel1-piped-2-auto[

```r
*NHANES::NHANESraw
```
]
 
.panel2-piped-2-auto[

```
## # A tibble: 20,293 x 78
##       ID SurveyYr Gender   Age AgeMonths Race1   Race3 Education     MaritalStatus HHIncome  HHIncomeMid Poverty
##    <int> <fct>    <fct>  <int>     <int> <fct>   <fct> <fct>         <fct>         <fct>           <int>   <dbl>
##  1 51624 2009_10  male      34       409 White   <NA>  High School   Married       25000-34~       30000    1.36
##  2 51625 2009_10  male       4        49 Other   <NA>  <NA>          <NA>          20000-24~       22500    1.07
##  3 51626 2009_10  male      16       202 Black   <NA>  <NA>          <NA>          45000-54~       50000    2.27
##  4 51627 2009_10  male      10       131 Black   <NA>  <NA>          <NA>          20000-24~       22500    0.81
##  5 51628 2009_10  female    60       722 Black   <NA>  High School   Widowed       10000-14~       12500    0.69
##  6 51629 2009_10  male      26       313 Mexican <NA>  9 - 11th Gra~ Married       25000-34~       30000    1.01
##  7 51630 2009_10  female    49       596 White   <NA>  Some College  LivePartner   35000-44~       40000    1.91
##  8 51631 2009_10  female     1        12 White   <NA>  <NA>          <NA>          35000-44~       40000    1.36
##  9 51632 2009_10  male      10       124 Hispan~ <NA>  <NA>          <NA>          65000-74~       70000    2.68
## 10 51633 2009_10  male      80        NA White   <NA>  Some College  Married       15000-19~       17500    1.27
## # ... with 20,283 more rows, and 66 more variables: HomeRooms <int>, HomeOwn <fct>, Work <fct>, Weight <dbl>,
## #   Length <dbl>, HeadCirc <dbl>, Height <dbl>, BMI <dbl>, BMICatUnder20yrs <fct>, BMI_WHO <fct>, Pulse <int>,
## #   BPSysAve <int>, BPDiaAve <int>, BPSys1 <int>, BPDia1 <int>, BPSys2 <int>, BPDia2 <int>, BPSys3 <int>,
## #   BPDia3 <int>, Testosterone <dbl>, DirectChol <dbl>, TotChol <dbl>, UrineVol1 <int>, UrineFlow1 <dbl>,
## #   UrineVol2 <int>, UrineFlow2 <dbl>, Diabetes <fct>, DiabetesAge <int>, HealthGen <fct>,
## #   DaysPhysHlthBad <int>, DaysMentHlthBad <int>, LittleInterest <fct>, Depressed <fct>, nPregnancies <int>,
## #   nBabies <int>, Age1stBaby <int>, SleepHrsNight <int>, SleepTrouble <fct>, PhysActive <fct>,
## #   PhysActiveDays <int>, TVHrsDay <fct>, CompHrsDay <fct>, TVHrsDayChild <int>, CompHrsDayChild <int>,
## #   Alcohol12PlusYr <fct>, AlcoholDay <int>, AlcoholYear <int>, SmokeNow <fct>, Smoke100 <fct>, SmokeAge <int>,
…
.panel1-piped-2-auto[

```r
NHANES::NHANESraw %>%
*   filter(AlcoholDay >= 2,
*          Smoke100 == "Yes")
```
]
 
.panel2-piped-2-auto[

```
## # A tibble: 2,424 x 78
##       ID SurveyYr Gender   Age AgeMonths Race1   Race3 Education    MaritalStatus HHIncome   HHIncomeMid Poverty
##    <int> <fct>    <fct>  <int>     <int> <fct>   <fct> <fct>        <fct>         <fct>            <int>   <dbl>
##  1 51629 2009_10  male      26       313 Mexican <NA>  9 - 11th Gr~ Married       25000-349~       30000    1.01
##  2 51630 2009_10  female    49       596 White   <NA>  Some College LivePartner   35000-449~       40000    1.91
##  3 51648 2009_10  male      28       338 Mexican <NA>  8th Grade    NeverMarried  10000-149~       12500    0.09
##  4 51668 2009_10  female    70       842 Black   <NA>  9 - 11th Gr~ Divorced      5000-9999         7500    0.49
##  5 51673 2009_10  female    30       360 White   <NA>  High School  Married       15000-199~       17500    0.68
##  6 51677 2009_10  male      33       404 White   <NA>  High School  Married       25000-349~       30000    1.27
##  7 51678 2009_10  male      60       721 White   <NA>  High School  Married       15000-199~       17500    1.03
##  8 51680 2009_10  female    60       727 Black   <NA>  Some College NeverMarried  25000-349~       30000    2.59
##  9 51687 2009_10  male      78       937 White   <NA>  College Grad Married       75000-999~       87500    5   
## 10 51697 2009_10  male      27       328 Black   <NA>  9 - 11th Gr~ Married       20000-249~       22500    1.58
## # ... with 2,414 more rows, and 66 more variables: HomeRooms <int>, HomeOwn <fct>, Work <fct>, Weight <dbl>,
## #   Length <dbl>, HeadCirc <dbl>, Height <dbl>, BMI <dbl>, BMICatUnder20yrs <fct>, BMI_WHO <fct>, Pulse <int>,
## #   BPSysAve <int>, BPDiaAve <int>, BPSys1 <int>, BPDia1 <int>, BPSys2 <int>, BPDia2 <int>, BPSys3 <int>,
## #   BPDia3 <int>, Testosterone <dbl>, DirectChol <dbl>, TotChol <dbl>, UrineVol1 <int>, UrineFlow1 <dbl>,
## #   UrineVol2 <int>, UrineFlow2 <dbl>, Diabetes <fct>, DiabetesAge <int>, HealthGen <fct>,
## #   DaysPhysHlthBad <int>, DaysMentHlthBad <int>, LittleInterest <fct>, Depressed <fct>, nPregnancies <int>,
## #   nBabies <int>, Age1stBaby <int>, SleepHrsNight <int>, SleepTrouble <fct>, PhysActive <fct>,
## #   PhysActiveDays <int>, TVHrsDay <fct>, CompHrsDay <fct>, TVHrsDayChild <int>, CompHrsDayChild <int>,
## #   Alcohol12PlusYr <fct>, AlcoholDay <int>, AlcoholYear <int>, SmokeNow <fct>, Smoke100 <fct>, SmokeAge <int>,
…
.panel1-piped-2-auto[

```r
NHANES::NHANESraw %>%
    filter(AlcoholDay >= 2,
           Smoke100 == "Yes") %>%
* select(ID, Smoke100, SleepHrsNight)
```
]
 
.panel2-piped-2-auto[

```
## # A tibble: 2,424 x 3
##       ID Smoke100 SleepHrsNight
##    <int> <fct>            <int>
##  1 51629 Yes                  4
##  2 51630 Yes                  8
##  3 51648 Yes                  8
##  4 51668 Yes                  4
##  5 51673 Yes                  8
##  6 51677 Yes                  6
##  7 51678 Yes                  6
##  8 51680 Yes                  6
##  9 51687 Yes                  6
## 10 51697 Yes                  7
## # ... with 2,414 more rows
```
…
---

count: false

.panel1-mutate-exercise-auto[

```r
*NHANES::NHANESraw
```
]
 
.panel2-mutate-exercise-auto[

```
## # A tibble: 20,293 x 78
##       ID SurveyYr Gender   Age AgeMonths Race1   Race3 Education     MaritalStatus HHIncome  HHIncomeMid Poverty
##    <int> <fct>    <fct>  <int>     <int> <fct>   <fct> <fct>         <fct>         <fct>           <int>   <dbl>
##  1 51624 2009_10  male      34       409 White   <NA>  High School   Married       25000-34~       30000    1.36
##  2 51625 2009_10  male       4        49 Other   <NA>  <NA>          <NA>          20000-24~       22500    1.07
##  3 51626 2009_10  male      16       202 Black   <NA>  <NA>          <NA>          45000-54~       50000    2.27
##  4 51627 2009_10  male      10       131 Black   <NA>  <NA>          <NA>          20000-24~       22500    0.81
##  5 51628 2009_10  female    60       722 Black   <NA>  High School   Widowed       10000-14~       12500    0.69
##  6 51629 2009_10  male      26       313 Mexican <NA>  9 - 11th Gra~ Married       25000-34~       30000    1.01
##  7 51630 2009_10  female    49       596 White   <NA>  Some College  LivePartner   35000-44~       40000    1.91
##  8 51631 2009_10  female     1        12 White   <NA>  <NA>          <NA>          35000-44~       40000    1.36
##  9 51632 2009_10  male      10       124 Hispan~ <NA>  <NA>          <NA>          65000-74~       70000    2.68
## 10 51633 2009_10  male      80        NA White   <NA>  Some College  Married       15000-19~       17500    1.27
## # ... with 20,283 more rows, and 66 more variables: HomeRooms <int>, HomeOwn <fct>, Work <fct>, Weight <dbl>,
## #   Length <dbl>, HeadCirc <dbl>, Height <dbl>, BMI <dbl>, BMICatUnder20yrs <fct>, BMI_WHO <fct>, Pulse <int>,
## #   BPSysAve <int>, BPDiaAve <int>, BPSys1 <int>, BPDia1 <int>, BPSys2 <int>, BPDia2 <int>, BPSys3 <int>,
## #   BPDia3 <int>, Testosterone <dbl>, DirectChol <dbl>, TotChol <dbl>, UrineVol1 <int>, UrineFlow1 <dbl>,
## #   UrineVol2 <int>, UrineFlow2 <dbl>, Diabetes <fct>, DiabetesAge <int>, HealthGen <fct>,
## #   DaysPhysHlthBad <int>, DaysMentHlthBad <int>, LittleInterest <fct>, Depressed <fct>, nPregnancies <int>,
## #   nBabies <int>, Age1stBaby <int>, SleepHrsNight <int>, SleepTrouble <fct>, PhysActive <fct>,
## #   PhysActiveDays <int>, TVHrsDay <fct>, CompHrsDay <fct>, TVHrsDayChild <int>, CompHrsDayChild <int>,
## #   Alcohol12PlusYr <fct>, AlcoholDay <int>, AlcoholYear <int>, SmokeNow <fct>, Smoke100 <fct>, SmokeAge <int>,
…
.panel1-mutate-exercise-auto[

```r
NHANES::NHANESraw %>%
* mutate(Height_m = Height / 100,
*        bmi_new = Weight/(Height_m ^ 2))
```
]
 
.panel2-mutate-exercise-auto[

```
## # A tibble: 20,293 x 80
##       ID SurveyYr Gender   Age AgeMonths Race1   Race3 Education     MaritalStatus HHIncome  HHIncomeMid Poverty
##    <int> <fct>    <fct>  <int>     <int> <fct>   <fct> <fct>         <fct>         <fct>           <int>   <dbl>
##  1 51624 2009_10  male      34       409 White   <NA>  High School   Married       25000-34~       30000    1.36
##  2 51625 2009_10  male       4        49 Other   <NA>  <NA>          <NA>          20000-24~       22500    1.07
##  3 51626 2009_10  male      16       202 Black   <NA>  <NA>          <NA>          45000-54~       50000    2.27
##  4 51627 2009_10  male      10       131 Black   <NA>  <NA>          <NA>          20000-24~       22500    0.81
##  5 51628 2009_10  female    60       722 Black   <NA>  High School   Widowed       10000-14~       12500    0.69
##  6 51629 2009_10  male      26       313 Mexican <NA>  9 - 11th Gra~ Married       25000-34~       30000    1.01
##  7 51630 2009_10  female    49       596 White   <NA>  Some College  LivePartner   35000-44~       40000    1.91
##  8 51631 2009_10  female     1        12 White   <NA>  <NA>          <NA>          35000-44~       40000    1.36
##  9 51632 2009_10  male      10       124 Hispan~ <NA>  <NA>          <NA>          65000-74~       70000    2.68
## 10 51633 2009_10  male      80        NA White   <NA>  Some College  Married       15000-19~       17500    1.27
## # ... with 20,283 more rows, and 68 more variables: HomeRooms <int>, HomeOwn <fct>, Work <fct>, Weight <dbl>,
## #   Length <dbl>, HeadCirc <dbl>, Height <dbl>, BMI <dbl>, BMICatUnder20yrs <fct>, BMI_WHO <fct>, Pulse <int>,
## #   BPSysAve <int>, BPDiaAve <int>, BPSys1 <int>, BPDia1 <int>, BPSys2 <int>, BPDia2 <int>, BPSys3 <int>,
## #   BPDia3 <int>, Testosterone <dbl>, DirectChol <dbl>, TotChol <dbl>, UrineVol1 <int>, UrineFlow1 <dbl>,
## #   UrineVol2 <int>, UrineFlow2 <dbl>, Diabetes <fct>, DiabetesAge <int>, HealthGen <fct>,
## #   DaysPhysHlthBad <int>, DaysMentHlthBad <int>, LittleInterest <fct>, Depressed <fct>, nPregnancies <int>,
## #   nBabies <int>, Age1stBaby <int>, SleepHrsNight <int>, SleepTrouble <fct>, PhysActive <fct>,
## #   PhysActiveDays <int>, TVHrsDay <fct>, CompHrsDay <fct>, TVHrsDayChild <int>, CompHrsDayChild <int>,
## #   Alcohol12PlusYr <fct>, AlcoholDay <int>, AlcoholYear <int>, SmokeNow <fct>, Smoke100 <fct>, SmokeAge <int>,
…
.panel1-mutate-exercise-auto[

```r
NHANES::NHANESraw %>%
  mutate(Height_m = Height / 100,
         bmi_new = Weight/(Height_m ^ 2)) %>%
* filter(bmi_new < 16)
```
]
 
.panel2-mutate-exercise-auto[

```
## # A tibble: 1,661 x 80
##       ID SurveyYr Gender   Age AgeMonths Race1    Race3 Education MaritalStatus HHIncome    HHIncomeMid Poverty
##    <int> <fct>    <fct>  <int>     <int> <fct>    <fct> <fct>     <fct>         <fct>             <int>   <dbl>
##  1 51625 2009_10  male       4        49 Other    <NA>  <NA>      <NA>          20000-24999       22500    1.07
##  2 51632 2009_10  male      10       124 Hispanic <NA>  <NA>      <NA>          65000-74999       70000    2.68
##  3 51642 2009_10  male       7        85 Mexican  <NA>  <NA>      <NA>          <NA>                 NA   NA   
##  4 51681 2009_10  female     5        64 White    <NA>  <NA>      <NA>          20000-24999       22500    1.09
##  5 51743 2009_10  male       8        98 Hispanic <NA>  <NA>      <NA>          65000-74999       70000    0.65
##  6 51753 2009_10  male       3        43 White    <NA>  <NA>      <NA>          55000-64999       60000    2.33
##  7 51797 2009_10  female     2        33 Hispanic <NA>  <NA>      <NA>          more 99999       100000    5   
##  8 51802 2009_10  male       2        35 Mexican  <NA>  <NA>      <NA>          <NA>                 NA   NA   
##  9 51810 2009_10  male       7        93 White    <NA>  <NA>      <NA>          more 99999       100000    5   
## 10 51811 2009_10  male       5        63 Black    <NA>  <NA>      <NA>          5000-9999          7500    0.12
## # ... with 1,651 more rows, and 68 more variables: HomeRooms <int>, HomeOwn <fct>, Work <fct>, Weight <dbl>,
## #   Length <dbl>, HeadCirc <dbl>, Height <dbl>, BMI <dbl>, BMICatUnder20yrs <fct>, BMI_WHO <fct>, Pulse <int>,
## #   BPSysAve <int>, BPDiaAve <int>, BPSys1 <int>, BPDia1 <int>, BPSys2 <int>, BPDia2 <int>, BPSys3 <int>,
## #   BPDia3 <int>, Testosterone <dbl>, DirectChol <dbl>, TotChol <dbl>, UrineVol1 <int>, UrineFlow1 <dbl>,
## #   UrineVol2 <int>, UrineFlow2 <dbl>, Diabetes <fct>, DiabetesAge <int>, HealthGen <fct>,
## #   DaysPhysHlthBad <int>, DaysMentHlthBad <int>, LittleInterest <fct>, Depressed <fct>, nPregnancies <int>,
## #   nBabies <int>, Age1stBaby <int>, SleepHrsNight <int>, SleepTrouble <fct>, PhysActive <fct>,
## #   PhysActiveDays <int>, TVHrsDay <fct>, CompHrsDay <fct>, TVHrsDayChild <int>, CompHrsDayChild <int>,
## #   Alcohol12PlusYr <fct>, AlcoholDay <int>, AlcoholYear <int>, SmokeNow <fct>, Smoke100 <fct>, SmokeAge <int>,
…
.panel1-mutate-exercise-auto[

```r
NHANES::NHANESraw %>%
  mutate(Height_m = Height / 100,
         bmi_new = Weight/(Height_m ^ 2)) %>%
  filter(bmi_new < 16) %>%
* select(ID, bmi_new, BMI)
```
]
 
.panel2-mutate-exercise-auto[

```
## # A tibble: 1,661 x 3
##       ID bmi_new   BMI
##    <int>   <dbl> <dbl>
##  1 51625    15.3  15.3
##  2 51632    13.2  13.2
##  3 51642    15.4  15.4
##  4 51681    14.3  14.4
##  5 51743    15.6  15.6
##  6 51753    14.4  14.4
##  7 51797    15.3  15.3
##  8 51802    15.4  15.4
##  9 51810    15.2  15.2
## 10 51811    14.8  14.8
## # ... with 1,651 more rows
```
…
