C-Path R Training
…
---
# Keys in Relational Databases <img src="img/pipe.png" class="title-hex"><img src="img/lahman.png" class="title-hex"><img src="img/dplyr.png" class="title-hex">

*Example*: `People$playerID` is a primary key for `People` because it uniquely identifies the rows in `People`.
.small[To check if you have identified the Primary Key fields, use `count(primary_key_fields)` and `filter(n > 1)` to see if there are multiple rows for any group. If any group has more than one row, the fields are insufficient to serve as a primary key]
.pull-left[
Last name is *not* a Primary Key

```r
People %>%
  count(nameLast) %>%
  filter(n > 1)
## # A tibble: 2,590 x 2
##    nameLast        n
##    <chr>       <int>
##  1 Aaron           2
##  2 Abad            2
##  3 Abbey           2
##  4 Abbott          9
##  5 Abercrombie     2
##  6 Abernathy       4
##  7 Abrams          2
##  8 Abreu           8
##  9 Acevedo         2
## 10 Acker           2
## # ... with 2,580 more rows
```
…
]
.panel[.panel-name[prop]

```r
nhanes %>% 
  slice_sample(prop = 0.005)
## # A tibble: 101 x 78
##       ID SurveyYr Gender   Age AgeMonths Race1   Race3 Education   MaritalStatus
##    <int> <fct>    <fct>  <int>     <int> <fct>   <fct> <fct>       <fct>        
##  1 53110 2009_10  female    55       671 Other   <NA>  Some Colle~ Divorced     
##  2 55930 2009_10  male       2        26 Mexican <NA>  <NA>        <NA>         
##  3 68749 2011_12  female    21        NA Black   Black High School NeverMarried 
##  4 52961 2009_10  female    73       876 White   <NA>  Some Colle~ Widowed      
##  5 57181 2009_10  male      62       745 White   <NA>  9 - 11th G~ Married      
##  6 68370 2011_12  female    10        NA White   White <NA>        <NA>         
##  7 56540 2009_10  female     1        19 White   <NA>  <NA>        <NA>         
##  8 68114 2011_12  female    16        NA White   White <NA>        <NA>         
##  9 61208 2009_10  female    44       537 White   <NA>  High School Married      
## 10 63924 2011_12  female    29        NA Black   Black High School Separated    
## # ... with 91 more rows, and 69 more variables: HHIncome <fct>,
## #   HHIncomeMid <int>, Poverty <dbl>, HomeRooms <int>, HomeOwn <fct>,
## #   Work <fct>, Weight <dbl>, Length <dbl>, HeadCirc <dbl>, Height <dbl>,
## #   BMI <dbl>, BMICatUnder20yrs <fct>, BMI_WHO <fct>, Pulse <int>,
## #   BPSysAve <int>, BPDiaAve <int>, BPSys1 <int>, BPDia1 <int>, BPSys2 <int>,
## #   BPDia2 <int>, BPSys3 <int>, BPDia3 <int>, Testosterone <dbl>,
## #   DirectChol <dbl>, TotChol <dbl>, UrineVol1 <int>, UrineFlow1 <dbl>,
## #   UrineVol2 <int>, UrineFlow2 <dbl>, Diabetes <fct>, DiabetesAge <int>,
## #   HealthGen <fct>, DaysPhysHlthBad <int>, DaysMentHlthBad <int>,
…
---
<img src="img/pipe.png" class="title-hex"><img src="img/dplyr.png" class="title-hex">
## `slice_min()` and `slice_max()` select rows with highest or lowest values of a variable.

.panelset[
.panel[.panel-name[max]

```r
nhanes %>% 
  slice_max(Education)
## # A tibble: 2,656 x 78
##       ID SurveyYr Gender   Age AgeMonths Race1   Race3 Education   MaritalStatus
##    <int> <fct>    <fct>  <int>     <int> <fct>   <fct> <fct>       <fct>        
##  1 51647 2009_10  female    45       541 White   <NA>  College Gr~ Married      
##  2 51656 2009_10  male      58       707 White   <NA>  College Gr~ Divorced     
##  3 51664 2009_10  female    53       644 White   <NA>  College Gr~ Married      
##  4 51670 2009_10  male      22       269 White   <NA>  College Gr~ NeverMarried 
##  5 51685 2009_10  female    56       677 White   <NA>  College Gr~ Married      
##  6 51687 2009_10  male      78       937 White   <NA>  College Gr~ Married      
##  7 51692 2009_10  male      54       655 Hispan~ <NA>  College Gr~ Divorced     
##  8 51696 2009_10  male      54       657 Black   <NA>  College Gr~ Widowed      
##  9 51710 2009_10  female    26       319 White   <NA>  College Gr~ Married      
## 10 51718 2009_10  female    51       614 Mexican <NA>  College Gr~ Married      
## # ... with 2,646 more rows, and 69 more variables: HHIncome <fct>,
## #   HHIncomeMid <int>, Poverty <dbl>, HomeRooms <int>, HomeOwn <fct>,
## #   Work <fct>, Weight <dbl>, Length <dbl>, HeadCirc <dbl>, Height <dbl>,
## #   BMI <dbl>, BMICatUnder20yrs <fct>, BMI_WHO <fct>, Pulse <int>,
## #   BPSysAve <int>, BPDiaAve <int>, BPSys1 <int>, BPDia1 <int>, BPSys2 <int>,
## #   BPDia2 <int>, BPSys3 <int>, BPDia3 <int>, Testosterone <dbl>,
## #   DirectChol <dbl>, TotChol <dbl>, UrineVol1 <int>, UrineFlow1 <dbl>,
## #   UrineVol2 <int>, UrineFlow2 <dbl>, Diabetes <fct>, DiabetesAge <int>,
## #   HealthGen <fct>, DaysPhysHlthBad <int>, DaysMentHlthBad <int>,
…
]
.panel[.panel-name[min]

```r
nhanes %>% 
  slice_min(Age)
## # A tibble: 820 x 78
##       ID SurveyYr Gender   Age AgeMonths Race1    Race3 Education MaritalStatus
##    <int> <fct>    <fct>  <int>     <int> <fct>    <fct> <fct>     <fct>        
##  1 51644 2009_10  male       0         9 White    <NA>  <NA>      <NA>         
##  2 51688 2009_10  male       0         3 White    <NA>  <NA>      <NA>         
##  3 51717 2009_10  female     0         4 White    <NA>  <NA>      <NA>         
##  4 51786 2009_10  male       0        10 Mexican  <NA>  <NA>      <NA>         
##  5 51876 2009_10  female     0         7 Mexican  <NA>  <NA>      <NA>         
##  6 51947 2009_10  female     0        10 Mexican  <NA>  <NA>      <NA>         
##  7 51962 2009_10  female     0         2 Hispanic <NA>  <NA>      <NA>         
##  8 51988 2009_10  female     0         0 Black    <NA>  <NA>      <NA>         
##  9 52001 2009_10  female     0         8 Mexican  <NA>  <NA>      <NA>         
## 10 52034 2009_10  male       0         8 Mexican  <NA>  <NA>      <NA>         
## # ... with 810 more rows, and 69 more variables: HHIncome <fct>,
## #   HHIncomeMid <int>, Poverty <dbl>, HomeRooms <int>, HomeOwn <fct>,
## #   Work <fct>, Weight <dbl>, Length <dbl>, HeadCirc <dbl>, Height <dbl>,
## #   BMI <dbl>, BMICatUnder20yrs <fct>, BMI_WHO <fct>, Pulse <int>,
## #   BPSysAve <int>, BPDiaAve <int>, BPSys1 <int>, BPDia1 <int>, BPSys2 <int>,
## #   BPDia2 <int>, BPSys3 <int>, BPDia3 <int>, Testosterone <dbl>,
## #   DirectChol <dbl>, TotChol <dbl>, UrineVol1 <int>, UrineFlow1 <dbl>,
## #   UrineVol2 <int>, UrineFlow2 <dbl>, Diabetes <fct>, DiabetesAge <int>,
## #   HealthGen <fct>, DaysPhysHlthBad <int>, DaysMentHlthBad <int>,
…
